.....................
----------------------------------------------------------------------
Ran 21 tests in 29.559s

OK
Name             Stmts   Miss Branch BrPart  Cover   Missing
------------------------------------------------------------
Collatz.py          56      0     18      0   100%
TestCollatz.py      90      0      2      0   100%
------------------------------------------------------------
TOTAL              146      0     20      0   100%
