...............
----------------------------------------------------------------------
Ran 15 tests in 0.399s

OK
Name             Stmts   Miss Branch BrPart  Cover   Missing
------------------------------------------------------------
Collatz.py          34      2     12      1    93%   543-544
TestCollatz.py      69      0      2      0   100%
------------------------------------------------------------
TOTAL              103      2     14      1    97%
